%YAML 1.1
%TAG !u! tag:unity3d.com,2011:
--- !u!114 &11400000
MonoBehaviour:
  m_ObjectHideFlags: 0
  m_CorrespondingSourceObject: {fileID: 0}
  m_PrefabInstance: {fileID: 0}
  m_PrefabAsset: {fileID: 0}
  m_GameObject: {fileID: 0}
  m_Enabled: 1
  m_EditorHideFlags: 0
  m_Script: {fileID: 11500000, guid: 21cb495ffbca0404d878640680165899, type: 3}
  m_Name: PineTreeBrush
  m_EditorClassIdentifier: 
  prefabList:
  - {fileID: 3069494867558524435, guid: 87125963a6b892b43bf958cb892902ca, type: 3}
  paintType: 2
  brushSize: 1
  minBrushSize: 0.1
  maxBrushSize: 20
  paintDeltaDistance: 0.4
  maxPaintDeltaDistance: 3
  minPaintDeltaDistance: 0.1
  prefabsPerStroke: 1
  maxprefabsPerStroke: 20
  minprefabsPerStroke: 1
  spawnHeight: 10
  addRigidbodyToPaintedPrefab: 1
  physicsIterations: 100
  checkLayer: 0
  checkTag: 0
  checkSlope: 0
  requiredTagMask: 0
  requiredLayerMask: 0
  minRequiredSlope: 0
  maxRequiredSlope: 0
  prefabOriginOffset: {x: 0, y: 0, z: 0}
  prefabRotationOffset: {x: 0, y: 0, z: 0}
  draggingAction: 1
  rotationAxis: 0
  rotationSensitivity: 10
  parentingStyle: 2
  parent: {fileID: 0}
  rotateToMatchSurface: 0
  rotateSurfaceDirection: 0
  randomizeRotation: 0
  minXRotation: 0
  maxXRotation: 0
  minYRotation: 0
  maxYRotation: 0
  minZRotation: 0
  maxZRotation: 0
  scaleType: 1
  scaleApplicationType: 0
  minScale: 200
  maxScale: 300
  minXScale: 1
  maxXScale: 1
  minYScale: 1
  maxYScale: 1
  minZScale: 1
  maxZScale: 1
  parentList: []
  eraseBrushSize: 1
  minEraseBrushSize: 0.1
  maxEraseBrushSize: 20
  eraseType: 0
  checkLayerForErase: 0
  checkTagForErase: 0
  checkSlopeForErase: 0
  requiredTagMaskForErase: 0
  requiredLayerMaskForErase: 0
  minRequiredSlopeForErase: 0
  maxRequiredSlopeForErase: 0
  eraseDetection: 0
  paintBrushHotKey: 112
  paintBrushHoldKey: 1
  removeBrushHotKey: 306
  removeBrushHoldKey: 1
  disableBrushHotKey: 105
  disableBrushHoldKey: 1
